Hepatits C prediction
…
    Author

             A.G. 

Read data set

df <- read_csv("data/HepatitisCdata.csv", col_types = "dfdfdddddddddd") %>% select(-...1)

# make re-coded Category variable
df$Diagnosis <- if_else(df$Category == "0=Blood Donor", "Donor", "Hepatitis")
df$Diagnosis <- factor(df$Diagnosis, levels = c("Donor", "Hepatitis"))
df <- df %>% relocate(Diagnosis, .before = Category)
df

# A tibble: 615 × 14
   Diagnosis Category        Age Sex     ALB   ALP   ALT   AST   BIL   CHE  CHOL
   <fct>     <fct>         <dbl> <fct> <dbl> <dbl> <dbl> <dbl> <dbl> <dbl> <dbl>
 1 Donor     0=Blood Donor    32 m      38.5  52.5   7.7  22.1   7.5  6.93  3.23
 2 Donor     0=Blood Donor    32 m      38.5  70.3  18    24.7   3.9 11.2   4.8 
 3 Donor     0=Blood Donor    32 m      46.9  74.7  36.2  52.6   6.1  8.84  5.2 
 4 Donor     0=Blood Donor    32 m      43.2  52    30.6  22.6  18.9  7.33  4.74
 5 Donor     0=Blood Donor    32 m      39.2  74.1  32.6  24.8   9.6  9.15  4.32
 6 Donor     0=Blood Donor    32 m      41.6  43.3  18.5  19.7  12.3  9.92  6.05
 7 Donor     0=Blood Donor    32 m      46.3  41.3  17.5  17.8   8.5  7.01  4.79
 8 Donor     0=Blood Donor    32 m      42.2  41.9  35.8  31.1  16.1  5.82  4.6 
 9 Donor     0=Blood Donor    32 m      50.9  65.5  23.2  21.2   6.9  8.69  4.1 
10 Donor     0=Blood Donor    32 m      42.4  86.3  20.3  20    35.2  5.46  4.45
# … with 605 more rows, and 3 more variables: CREA <dbl>, GGT <dbl>, PROT <dbl>
…
